<?xml version="1.0" standalone="no"?>
<!DOCTYPE svg PUBLIC "-//W3C//DTD SVG 20010904//EN"
 "http://www.w3.org/TR/2001/REC-SVG-20010904/DTD/svg10.dtd">
<svg version="1.0" xmlns="http://www.w3.org/2000/svg"
 width="700.000000pt" height="700.000000pt" viewBox="0 0 700.000000 700.000000"
 preserveAspectRatio="xMidYMid meet">
<metadata>
Created by potrace 1.14, written by Peter Selinger 2001-2017
</metadata>
<g transform="translate(0.000000,700.000000) scale(0.100000,-0.100000)"
fill="#000000" stroke="none">
<path d="M0 4135 l0 -2865 690 0 690 0 0 -635 0 -635 2810 0 2810 0 0 2865 0
2865 -690 0 -690 0 0 635 0 635 -2810 0 -2810 0 0 -2865z m2810 835 l0 -760
690 0 690 0 0 760 0 760 715 0 715 0 0 -2230 0 -2230 -715 0 -715 0 0 760 0
760 -690 0 -690 0 0 -760 0 -760 -715 0 -715 0 0 2230 0 2230 715 0 715 0 0
-760z"/>
</g>
</svg>
