<svg viewBox="0 0 688 91" fill="none" xmlns="http://www.w3.org/2000/svg">
<path d="M72.3615 16.3457V73.8204H53.9833V54.2715H36.1819V73.8204H17.8029V90.1664H90.1654V16.3457H72.3615Z" fill="#464B4E"/>
<path d="M0 0V73.8204H17.803V16.3457H36.182V35.8937H53.9833V16.3457H72.3616V0H0Z" fill="#FF525A"/>
<path d="M53.9838 16.3457V35.8937H36.1819V16.3457H17.8029V73.8205H36.1819V54.2716H53.9838V73.8205H72.3626V16.3457H53.9838Z" fill="white"/>
<path d="M103.023 17.3241H116.463V64.8387H103.023V17.3241ZM146.116 65.789C142.27 65.789 138.537 65.3139 134.916 64.3636C131.296 63.4133 128.355 62.1464 126.092 60.5624L130.504 50.6522C132.631 52.0549 135.098 53.1865 137.903 54.0461C140.709 54.9058 143.469 55.3358 146.184 55.3358C151.343 55.3358 153.922 54.0461 153.922 51.4668C153.922 50.1092 153.175 49.1137 151.682 48.4801C150.234 47.8013 147.881 47.0999 144.623 46.3759C141.048 45.6066 138.061 44.7921 135.663 43.9323C133.265 43.0272 131.206 41.6018 129.486 39.656C127.767 37.7102 126.907 35.0855 126.907 31.7821C126.907 28.886 127.699 26.284 129.282 23.9761C130.866 21.6231 133.219 19.7677 136.342 18.4101C139.51 17.0526 143.379 16.3738 147.949 16.3738C151.071 16.3738 154.149 16.7358 157.18 17.4598C160.213 18.1386 162.882 19.1568 165.19 20.5144L161.049 30.4924C156.524 28.0488 152.135 26.827 147.881 26.827C145.211 26.827 143.265 27.2343 142.043 28.0488C140.822 28.8181 140.211 29.8363 140.211 31.1033C140.211 32.3704 140.935 33.3207 142.383 33.9542C143.831 34.5878 146.162 35.2439 149.374 35.9227C152.995 36.692 155.981 37.5291 158.334 38.4342C160.733 39.2939 162.792 40.6968 164.511 42.6426C166.276 44.5432 167.158 47.1452 167.158 50.4486C167.158 53.2995 166.367 55.8788 164.783 58.1867C163.199 60.4945 160.823 62.3501 157.655 63.7527C154.488 65.1103 150.642 65.789 146.116 65.789ZM186.211 27.981H171.618V17.3241H214.177V27.981H199.651V64.8387H186.211V27.981ZM245.876 65.789C240.853 65.789 236.328 64.7258 232.301 62.5988C228.319 60.4718 225.173 57.5307 222.866 53.7746C220.603 50.0187 219.472 45.7876 219.472 41.0814C219.472 36.3752 220.603 32.1442 222.866 28.3882C225.173 24.6323 228.319 21.6909 232.301 19.5641C236.328 17.4372 240.853 16.3738 245.876 16.3738C250.899 16.3738 255.402 17.4372 259.384 19.5641C263.412 21.6909 266.557 24.6323 268.819 28.3882C271.127 32.1442 272.281 36.3752 272.281 41.0814C272.281 45.7876 271.127 50.0187 268.819 53.7746C266.557 57.5307 263.412 60.4718 259.384 62.5988C255.402 64.7258 250.899 65.789 245.876 65.789ZM245.876 54.657C248.275 54.657 250.447 54.0912 252.392 52.9601C254.339 51.829 255.877 50.245 257.008 48.2086C258.14 46.127 258.705 43.7513 258.705 41.0814C258.705 38.4115 258.14 36.0584 257.008 34.0221C255.877 31.9405 254.339 30.334 252.392 29.2028C250.447 28.0715 248.275 27.5058 245.876 27.5058C243.478 27.5058 241.306 28.0715 239.36 29.2028C237.414 30.334 235.876 31.9405 234.744 34.0221C233.613 36.0584 233.047 38.4115 233.047 41.0814C233.047 43.7513 233.613 46.127 234.744 48.2086C235.876 50.245 237.414 51.829 239.36 52.9601C241.306 54.0912 243.478 54.657 245.876 54.657ZM303.485 52.2134H296.154V64.8387H282.714V17.3241H304.435C308.734 17.3241 312.467 18.0481 315.635 19.4962C318.803 20.899 321.246 22.9353 322.966 25.6052C324.685 28.2298 325.545 31.3296 325.545 34.9045C325.545 38.3437 324.731 41.3529 323.102 43.9323C321.518 46.4664 319.233 48.4575 316.246 49.9056L326.496 64.8387H312.105L303.485 52.2134ZM311.97 34.9045C311.97 32.6872 311.268 30.9676 309.865 29.7458C308.462 28.524 306.381 27.9131 303.621 27.9131H296.154V41.8281H303.621C306.381 41.8281 308.462 41.2398 309.865 40.0632C311.268 38.8414 311.97 37.1218 311.97 34.9045ZM361.145 47.8013V64.8387H347.705V47.5977L329.581 17.3241H343.768L355.036 36.1942L366.304 17.3241H379.336L361.145 47.8013Z" fill="#464B4E"/>
<path d="M379.511 65.1782C378.516 65.1782 377.656 64.816 376.932 64.0921C376.253 63.3682 375.914 62.4858 375.914 61.4449C375.914 60.4039 376.253 59.5443 376.932 58.8655C377.656 58.1416 378.516 57.7794 379.511 57.7794C380.507 57.7794 381.367 58.1416 382.091 58.8655C382.815 59.5443 383.177 60.4039 383.177 61.4449C383.177 62.4858 382.815 63.3682 382.091 64.0921C381.367 64.816 380.507 65.1782 379.511 65.1782ZM411.596 65.246C408.066 65.246 404.672 64.6802 401.414 63.5491C398.201 62.4179 395.713 60.9246 393.948 59.0691L395.916 55.2001C397.636 56.9198 399.921 58.3225 402.772 59.4085C405.623 60.4495 408.564 60.9697 411.596 60.9697C415.85 60.9697 419.04 60.2003 421.167 58.6619C423.294 57.0779 424.357 55.0415 424.357 52.5528C424.357 50.6522 423.769 49.1363 422.592 48.005C421.461 46.8737 420.058 46.0139 418.384 45.4256C416.71 44.7921 414.379 44.1133 411.392 43.3893C407.818 42.4842 404.967 41.6245 402.84 40.8099C400.713 39.9501 398.88 38.6605 397.342 36.9409C395.848 35.2213 395.102 32.8908 395.102 29.9494C395.102 27.5511 395.735 25.379 397.002 23.4331C398.269 21.442 400.215 19.8582 402.84 18.6817C405.464 17.5051 408.722 16.9168 412.614 16.9168C415.329 16.9168 417.977 17.3015 420.556 18.0708C423.18 18.7948 425.443 19.8129 427.344 21.1253L425.647 25.1301C423.655 23.8178 421.529 22.8449 419.266 22.2113C417.003 21.5325 414.786 21.1932 412.614 21.1932C408.451 21.1932 405.306 22.0077 403.179 23.6368C401.098 25.2206 400.057 27.2795 400.057 29.8137C400.057 31.7143 400.623 33.2528 401.754 34.4294C402.93 35.5607 404.378 36.4431 406.098 37.0766C407.863 37.6649 410.216 38.3211 413.157 39.0451C416.642 39.9049 419.447 40.7647 421.574 41.6245C423.746 42.439 425.579 43.706 427.072 45.4256C428.565 47.0999 429.312 49.3852 429.312 52.2813C429.312 54.6798 428.656 56.8742 427.344 58.8655C426.077 60.8112 424.108 62.3724 421.438 63.5491C418.768 64.6802 415.488 65.246 411.596 65.246ZM452.219 21.6683H435.521V17.3241H473.94V21.6683H457.242V64.8388H452.219V21.6683ZM517.803 64.8388L506.943 49.5662C505.722 49.7019 504.455 49.7698 503.142 49.7698H490.381V64.8388H485.358V17.3241H503.142C509.207 17.3241 513.959 18.7722 517.398 21.6683C520.838 24.5644 522.555 28.5466 522.555 33.6148C522.555 37.3255 521.608 40.4705 519.703 43.0499C517.849 45.584 515.179 47.4167 511.694 48.548L523.305 64.8388H517.803ZM503.006 45.4935C507.713 45.4935 511.309 44.4527 513.802 42.3711C516.289 40.2895 517.535 37.3708 517.535 33.6148C517.535 29.7684 516.289 26.827 513.802 24.7907C511.309 22.7091 507.713 21.6683 503.006 21.6683H490.381V45.4935H503.006ZM571.407 60.4946V64.8388H537.807V17.3241H570.389V21.6683H542.827V38.5699H567.4V42.8463H542.827V60.4946H571.407ZM616.404 52.1456H589.931L584.228 64.8388H579.005L600.726 17.3241H605.68L627.401 64.8388H622.108L616.404 52.1456ZM614.57 48.0729L603.168 22.5507L591.765 48.0729H614.57ZM688 17.3241V64.8388H683.183V26.827L664.516 58.7976H662.141L643.474 27.0307V64.8388H638.652V17.3241H642.795L663.427 52.5528L683.862 17.3241H688Z" fill="#464B4E"/>
</svg>
